<?xml version="1.0" encoding="utf-8"?>
<svg xmlns="http://www.w3.org/2000/svg" version="1.1" width="755px" height="200px" viewBox="0 0 1130 300">
	<title>Nynorsk layout</title>
	<style type="text/css">
	rect
		{fill:#707070;
		stroke:url(#gradient);
		stroke-width:15;}
	polygon
		{fill:#303030;
		stroke:#101010;
		stroke-width:5;}
	text
		{font-size:25px;
		font-family:serif;
		text-shadow:silver 2px 2px 2px;}
	g
		{fill:yellow;}
	g.punctuation
		{fill:orange;}
	g.consonants
		{fill:white;}
	</style>
	<defs>
		<linearGradient id="gradient" x1="0" x2="1" y1="0" y2="1">
			<stop offset="0%" stop-color="#909090"/>
			<stop offset="100%" stop-color="#101010"/>
		</linearGradient>
	</defs>

	<!--
		Nynorsk Carpalx Optimization
		2020 Giorgi Chavchanidze
		Public Domain
	-->

	<polygon points="10,10 1090,10 1065,290 125,290" stroke-linejoin="round"/>

	<g class="vowels">
	<rect x="210" y="10" rx="5" ry="5" width="80" height="80"/>
	<text x="240" y="60">U</text>
	<rect x="310" y="10" rx="5" ry="5" width="80" height="80"/>
	<text x="340" y="60">O</text>
	<rect x="410" y="10" rx="5" ry="5" width="80" height="80"/>
	<text x="440" y="60">Å</text>

	<rect x="240" y="110" rx="5" ry="5" width="80" height="80"/>
	<text x="270" y="160">E</text>
	<rect x="340" y="110" rx="5" ry="5" width="80" height="80"/>
	<text x="370" y="160">A</text>
	<rect x="440" y="110" rx="5" ry="5" width="80" height="80"/>
	<text x="470" y="160">I</text>

	<rect x="290" y="210" rx="5" ry="5" width="80" height="80"/>
	<text x="320" y="260">Ø</text>
	<rect x="390" y="210" rx="5" ry="5" width="80" height="80"/>
	<text x="420" y="260">Y</text>
	<rect x="490" y="210" rx="5" ry="5" width="80" height="80"/>
	<text x="520" y="260">Æ</text>
	</g>

	<g class="consonants">
	<rect x="10" y="10" rx="5" ry="5" width="80" height="80"/>
	<text x="40" y="60">W</text>
	<rect x="110" y="10" rx="5" ry="5" width="80" height="80"/>
	<text x="140" y="60">J</text>
	<rect x="510" y="10" rx="5" ry="5" width="80" height="80"/>
	<text x="540" y="60">P</text>
	<rect x="610" y="10" rx="5" ry="5" width="80" height="80"/>
	<text x="640" y="60">M</text>
	<rect x="710" y="10" rx="5" ry="5" width="80" height="80"/>
	<text x="740" y="60">G</text>
	<rect x="810" y="10" rx="5" ry="5" width="80" height="80"/>
	<text x="840" y="60">H</text>
	<rect x="910" y="10" rx="5" ry="5" width="80" height="80"/>
	<text x="940" y="60">C</text>
	<rect x="1010" y="10" rx="5" ry="5" width="80" height="80"/>
	<text x="1040" y="60">Q</text>

	<rect x="40" y="110" rx="5" ry="5" width="80" height="80"/>
	<text x="70" y="160">L</text>
	<rect x="140" y="110" rx="5" ry="5" width="80" height="80"/>
	<text x="170" y="160">R</text>
	<rect x="540" y="110" rx="5" ry="5" width="80" height="80"/>
	<text x="570" y="160">K</text>
	<rect x="640" y="110" rx="5" ry="5" width="80" height="80"/>
	<text x="670" y="160">N</text>
	<rect x="740" y="110" rx="5" ry="5" width="80" height="80"/>
	<text x="770" y="160">T</text>
	<rect x="840" y="110" rx="5" ry="5" width="80" height="80"/>
	<text x="870" y="160">S</text>
	<rect x="940" y="110" rx="5" ry="5" width="80" height="80"/>
	<text x="970" y="160">D</text>
	<rect x="1040" y="110" rx="5" ry="5" width="80" height="80"/>
	<text x="1070" y="160">V</text>

	<rect x="90" y="210" rx="5" ry="5" width="80" height="80"/>
	<text x="120" y="260">X</text>
	<rect x="190" y="210" rx="5" ry="5" width="80" height="80"/>
	<text x="220" y="260">Z</text>
	<rect x="590" y="210" rx="5" ry="5" width="80" height="80"/>
	<text x="620" y="260">B</text>
	<rect x="690" y="210" rx="5" ry="5" width="80" height="80"/>
	<text x="720" y="260">F</text>
	<rect x="790" y="210" rx="5" ry="5" width="80" height="80"/>
	</g>

	<g class="punctuation">
	<text x="820" y="260">,</text>
	<rect x="890" y="210" rx="5" ry="5" width="80" height="80"/>
	<text x="920" y="260">.</text>
	<rect x="990" y="210" rx="5" ry="5" width="80" height="80"/>
	<text x="1020" y="260">-</text>
	</g>

</svg>
