{
  "version": 1,
  "author": "Giorgi Chavchanidze",
  "notes": "SWORD optimized ortholinear layout - https://lykt.xyz/skl/norto/#nb",
  "documentation": "JSON file can be uploaded to https://config.qmk.fm for preview",
  "keyboard": "idobo",
  "keymap": "norto-nb",
  "layout": "LAYOUT_ortho_5x15",
  "layers": [
    [
      "KC_ESC",
      "KC_1",
      "KC_2",
      "KC_3",
      "KC_4",
      "KC_5",
      "KC_MINS",
      "KC_RBRC",
      "KC_BSLS",
      "KC_6",
      "KC_7",
      "KC_8",
      "KC_9",
      "KC_0",
      "KC_EQL",
      "KC_TAB",
      "KC_QUOT",
      "KC_U",
      "KC_LBRC",
      "KC_G",
      "KC_B",
      "RALT(KC_7)",
      "KC_GRV",
      "RALT(KC_0)",
      "KC_W",
      "KC_M",
      "KC_L",
      "KC_H",
      "KC_X",
      "KC_SLSH",
      "KC_CAPS",
      "KC_O",
      "KC_I",
      "KC_A",
      "KC_T",
      "KC_P",
      "RALT(KC_8)",
      "KC_LGUI",
      "RALT(KC_9)",
      "KC_K",
      "KC_N",
      "KC_R",
      "KC_S",
      "KC_D",
      "KC_ENT",
      "KC_PGUP",
      "KC_COMM",
      "KC_Y",
      "KC_SCLN",
      "KC_V",
      "KC_C",
      "KC_LALT",
      "MO(1)",
      "KC_RALT",
      "KC_Z",
      "KC_F",
      "KC_J",
      "RSFT_T(KC_Q)",
      "KC_DOT",
      "KC_HOME",
      "KC_PGDN",
      "KC_NUBS",
      "KC_INS",
      "KC_DEL",
      "KC_BSPC",
      "KC_E",
      "KC_LSFT",
      "KC_RCTL",
      "KC_RSFT",
      "KC_SPC",
      "KC_LEFT",
      "KC_DOWN",
      "KC_UP",
      "KC_RGHT",
      "KC_END"
    ],
    [
      "RESET",
      "KC_NO",
      "KC_NO",
      "KC_NO",
      "KC_NO",
      "KC_NO",
      "KC_NO",
      "KC_APP",
      "KC_NO",
      "KC_NO",
      "KC_NO",
      "KC_NO",
      "KC_NO",
      "KC_NO",
      "RGB_TOG",
      "KC_NO",
      "KC_NO",
      "KC_NO",
      "KC_NO",
      "KC_NO",
      "KC_NO",
      "KC_NO",
      "KC_NO",
      "KC_NO",
      "KC_NO",
      "KC_NO",
      "KC_NO",
      "KC_NO",
      "KC_NO",
      "KC_NO",
      "KC_SLCK",
      "KC_F1",
      "KC_F2",
      "KC_F3",
      "KC_F4",
      "KC_F5",
      "KC_NO",
      "KC_TRNS",
      "KC_NO",
      "KC_F6",
      "KC_F7",
      "KC_F8",
      "KC_F9",
      "KC_F10",
      "KC_PAUS",
      "KC_NO",
      "KC_NO",
      "KC_NO",
      "KC_NO",
      "KC_NO",
      "KC_NO",
      "KC_TRNS",
      "KC_TRNS",
      "KC_TRNS",
      "KC_NO",
      "KC_NO",
      "KC_NO",
      "KC_NO",
      "KC_NO",
      "KC_NO",
      "KC_PSCR",
      "KC_NO",
      "KC_NO",
      "KC_NO",
      "KC_NO",
      "KC_F11",
      "KC_TRNS",
      "KC_TRNS",
      "KC_TRNS",
      "KC_F12",
      "KC_NO",
      "KC_NO",
      "KC_NO",
      "KC_NO",
      "KC_PWR"
    ]
  ]
}
